ply
format ascii 1.0
comment VCGLIB generated
element vertex 360
property float x
property float y
property float z
property float nx
property float ny
property float nz
element face 148
property list uchar int vertex_indices
end_header
-0.003164 0.26506 4.896317 0.3826829 0.9238797 0 
0.251395 0.159619 -0.013683 0.3826829 0.9238797 0 
-0.003164 0.26506 -0.013683 0.3826829 0.9238797 0 
0.251395 0.159619 4.896317 0.9238797 0.3826829 0 
0.356836 -0.09494 -0.013683 0.9238797 0.3826829 0 
0.251395 0.159619 -0.013683 0.9238797 0.3826829 0 
0.356836 -0.09494 4.896317 0.9238797 -0.3826829 0 
0.251395 -0.349498 -0.013683 0.9238797 -0.3826829 0 
0.356836 -0.09494 -0.013683 0.9238797 -0.3826829 0 
0.251395 -0.349498 4.896317 0.3826832 -0.9238796 0 
-0.003164 -0.45494 -0.013683 0.3826832 -0.9238796 0 
0.251395 -0.349498 -0.013683 0.3826832 -0.9238796 0 
-0.003164 -0.45494 4.896317 -0.3826841 -0.9238793 0 
-0.257722 -0.349498 -0.013683 -0.3826841 -0.9238793 0 
-0.003164 -0.45494 -0.013683 -0.3826841 -0.9238793 0 
-0.257722 -0.349498 4.896317 -0.9238797 -0.3826829 0 
-0.363164 -0.09494 -0.013683 -0.9238797 -0.3826829 0 
-0.257722 -0.349498 -0.013683 -0.9238797 -0.3826829 0 
-0.257722 0.159619 4.896317 -0.3826829 0.9238797 0 
-0.003164 0.26506 8.243433 -0.3826829 0.9238797 0 
-0.003164 0.26506 4.896317 -0.3826829 0.9238797 0 
-0.363164 -0.09494 4.896317 -0.9238797 0.3826829 0 
-0.257722 0.159619 -0.013683 -0.9238797 0.3826829 0 
-0.363164 -0.09494 -0.013683 -0.9238797 0.3826829 0 
-0.257722 0.159619 4.896317 -0.3826829 0.9238797 0 
-0.003164 0.26506 -0.013683 -0.3826829 0.9238797 0 
-0.257722 0.159619 -0.013683 -0.3826829 0.9238797 0 
0.251395 -0.349498 -0.013683 0 -0 -1 
-0.363164 -0.09494 -0.013683 0 -0 -1 
-0.257722 0.159619 -0.013683 0 -0 -1 
-0.363164 -0.09494 9.118516 0 0 1 
-0.003164 -0.45494 9.118516 0 0 1 
0.356836 -0.09494 9.118516 0 0 1 
0.251395 0.159619 4.896317 0.3826829 0.9238797 0 
-0.003164 0.26506 8.243433 0.3826829 0.9238797 0 
0.251395 0.159619 8.645452 0.3826829 0.9238797 0 
0.356836 -0.09494 9.118516 0.9238797 -0.3826829 0 
0.251395 -0.349498 9.118516 0.9238797 -0.3826829 0 
0.251395 -0.349498 8.601395 0.9238797 -0.3826829 0 
-0.257722 -0.349498 4.896317 -0.9238797 -0.3826829 -0 
-0.257722 -0.349498 8.624483 -0.9238797 -0.3826829 -0 
-0.363164 -0.09494 4.896317 -0.9238797 -0.3826829 -0 
0.251395 -0.349498 4.896317 0.3826832 -0.9238796 0 
-0.003164 -0.45494 8.231602 0.3826832 -0.9238796 0 
-0.003164 -0.45494 4.896317 0.3826832 -0.9238796 0 
-0.363164 -0.09494 9.118516 -0.9238797 0.3826829 0 
-0.257722 0.159619 9.118516 -0.9238797 0.3826829 0 
-0.257722 0.159619 8.662436 -0.9238797 0.3826829 0 
0.251395 0.159619 4.896317 0.9238796 0.3826832 0 
0.251395 0.159619 8.645452 0.9238796 0.3826832 0 
0.356836 -0.09494 4.896317 0.9238796 0.3826832 0 
-0.257722 -0.349498 4.896317 -0.3826829 -0.9238797 0 
-0.003164 -0.45494 8.231602 -0.3826829 -0.9238797 0 
-0.257722 -0.349498 8.624483 -0.3826829 -0.9238797 0 
-0.003164 -1.031322 8.168848 0.6391461 0.2402221 -0.7306063 
0.214953 -1.485968 8.210173 0.6391461 0.2402221 -0.7306063 
-0.003164 -1.576315 7.989655 0.6391461 0.2402221 -0.7306063 
-0.003164 -0.45494 8.231602 -0.82463 0.090031 -0.558462 
-0.257722 -0.92588 8.531564 -0.82463 0.090031 -0.558462 
-0.257722 -0.349498 8.624483 -0.82463 0.090031 -0.558462 
-0.003164 -0.45494 8.881492 0.3826829 -0.9238797 0 
0.251395 -0.349498 9.118516 0.3826829 -0.9238797 0 
-0.003164 -0.45494 9.118516 0.3826829 -0.9238797 0 
-0.003164 -0.45494 8.881492 -0.3826829 -0.9238797 0 
-0.257722 -0.349498 9.118516 -0.3826829 -0.9238797 0 
-0.257722 -0.349498 8.624483 -0.3826829 -0.9238797 0 
-0.003164 -0.45494 8.231602 0.7905018 0.06628998 -0.6088618 
0.251395 -0.92588 8.510828 0.7905018 0.06628998 -0.6088618 
-0.003164 -1.031322 8.168848 0.7905018 0.06628998 -0.6088618 
-0.257722 -0.92588 8.531564 -0.7667253 -0.2868761 0.5743122 
-0.003164 -1.576315 8.546507 -0.7667253 -0.2868761 0.5743122 
-0.003164 -1.031322 8.818738 -0.7667253 -0.2868761 0.5743122 
-0.003164 -0.45494 8.881492 0.7549681 -0.101791 0.6478131 
0.251395 -0.92588 8.510828 0.7549681 -0.101791 0.6478131 
0.251395 -0.349498 8.601395 0.7549681 -0.101791 0.6478131 
-0.003164 -0.45494 8.881492 -0.7591643 -0.07045003 0.6470753 
-0.257722 -0.92588 8.531564 -0.7591643 -0.07045003 0.6470753 
-0.003164 -1.031322 8.818738 -0.7591643 -0.07045003 0.6470753 
0.214953 -1.485968 8.210173 0.8204672 -0.3752851 0.4312711 
-0.003164 -1.979971 8.195252 0.8204672 -0.3752851 0.4312711 
0.165368 -1.910163 7.935377 0.8204672 -0.3752851 0.4312711 
-0.003164 -1.576315 7.989655 -0.488111 0.4244541 -0.7626181 
-0.171695 -1.910163 7.911712 -0.488111 0.4244541 -0.7626181 
-0.22128 -1.485968 8.179544 -0.488111 0.4244541 -0.7626181 
-0.003164 -1.031322 8.168848 -0.7236038 0.3329239 -0.6046149 
-0.22128 -1.485968 8.179544 -0.7236038 0.3329239 -0.6046149 
-0.257722 -0.92588 8.531564 -0.7236038 0.3329239 -0.6046149 
0.251395 -0.92588 8.510828 0.834911 -0.301498 0.460459 
-0.003164 -1.576315 8.546507 0.834911 -0.301498 0.460459 
0.214953 -1.485968 8.210173 0.834911 -0.301498 0.460459 
0.165368 -1.910163 7.935377 0.7913203 -0.4743432 0.3857601 
-0.003164 -2.414288 7.661202 0.7913203 -0.4743432 0.3857601 
0.081242 -2.379325 7.531048 0.7913203 -0.4743432 0.3857601 
-0.003164 -1.979971 7.76499 -0.4149791 0.5388951 -0.7330651 
-0.08757 -2.379325 7.519196 -0.4149791 0.5388951 -0.7330651 
-0.171695 -1.910163 7.911712 -0.4149791 0.5388951 -0.7330651 
-0.22128 -1.485968 8.179544 -0.8388667 -0.3573269 0.4106339 
-0.003164 -1.979971 8.195252 -0.8388667 -0.3573269 0.4106339 
-0.003164 -1.576315 8.546507 -0.8388667 -0.3573269 0.4106339 
-0.003164 -1.576315 7.989655 0.5634147 0.4017878 -0.7218937 
0.165368 -1.910163 7.935377 0.5634147 0.4017878 -0.7218937 
-0.003164 -1.979971 7.76499 0.5634147 0.4017878 -0.7218937 
-0.003164 -2.414288 7.445713 0.2622259 0.7739136 -0.5764507 
0.01953 -2.707798 7.061984 0.2622259 0.7739136 -0.5764507 
-0.003164 -2.717197 7.039041 0.2622259 0.7739136 -0.5764507 
-0.08757 -2.379325 7.519196 -0.757616 -0.575068 0.308731 
-0.003164 -2.717197 7.096977 -0.757616 -0.575068 0.308731 
-0.003164 -2.414288 7.661202 -0.757616 -0.575068 0.308731 
-0.171695 -1.910163 7.911712 -0.8103289 -0.4546169 0.369717 
-0.003164 -2.414288 7.661202 -0.8103289 -0.4546169 0.369717 
-0.003164 -1.979971 8.195252 -0.8103289 -0.4546169 0.369717 
-0.003164 -1.979971 7.76499 0.4947079 0.5147459 -0.7002148 
0.081242 -2.379325 7.531048 0.4947079 0.5147459 -0.7002148 
-0.003164 -2.414288 7.445713 0.4947079 0.5147459 -0.7002148 
-0.003164 -2.717197 7.039041 0.3826821 -0.9238801 0 
0.01953 -2.707798 7.061984 0.3826821 -0.9238801 0 
-0.003164 -2.717197 7.096977 0.3826821 -0.9238801 0 
-0.003164 -2.717197 7.096977 -0.3826821 -0.9238801 0 
-0.025857 -2.707798 7.058797 -0.3826821 -0.9238801 0 
-0.003164 -2.717197 7.039041 -0.3826821 -0.9238801 0 
-0.003164 -2.414288 7.445713 -0.1846301 0.7881903 -0.5870842 
-0.025857 -2.707798 7.058797 -0.1846301 0.7881903 -0.5870842 
-0.08757 -2.379325 7.519196 -0.1846301 0.7881903 -0.5870842 
0.081242 -2.379325 7.531048 0.7382038 -0.5943428 0.3190799 
-0.003164 -2.717197 7.096977 0.7382038 -0.5943428 0.3190799 
0.01953 -2.707798 7.061984 0.7382038 -0.5943428 0.3190799 
-0.003164 0.26506 8.93936 -0.7362111 0 0.676752 
-0.257722 0.525795 8.662436 -0.7362111 0 0.676752 
-0.257722 0.159619 8.662436 -0.7362111 0 0.676752 
-0.003164 0.631237 8.93936 0.7748872 0.2339181 0.5872242 
0.183984 0.943769 8.567907 0.7748872 0.2339181 0.5872242 
-0.003164 1.021288 8.783984 0.7748872 0.2339181 0.5872242 
-0.003164 0.26506 8.93936 -0.3826832 0.9238796 0 
-0.257722 0.159619 9.118516 -0.3826832 0.9238796 0 
-0.003164 0.26506 9.118516 -0.3826832 0.9238796 0 
-0.003164 0.26506 8.243433 0.8448699 0 -0.534972 
0.251395 0.525795 8.645452 0.8448699 0 -0.534972 
0.251395 0.159619 8.645452 0.8448699 0 -0.534972 
-0.003164 0.26506 8.93936 0.3826829 0.9238797 -0 
0.251395 0.159619 9.118516 0.3826829 0.9238797 -0 
0.251395 0.159619 8.645452 0.3826829 0.9238797 -0 
-0.003164 0.631237 8.243433 0.8488259 0.039085 -0.5272259 
0.183984 0.943769 8.567907 0.8488259 0.039085 -0.5272259 
0.251395 0.525795 8.645452 0.8488259 0.039085 -0.5272259 
-0.003164 0.26506 8.243433 -0.8546389 0 -0.5192229 
-0.257722 0.525795 8.662436 -0.8546389 0 -0.5192229 
-0.003164 0.631237 8.243433 -0.8546389 0 -0.5192229 
-0.003164 0.26506 8.93936 0.755895 0 0.654693 
0.251395 0.525795 8.645452 0.755895 0 0.654693 
-0.003164 0.631237 8.93936 0.755895 0 0.654693 
0.183984 0.943769 8.567907 0.7735409 0.272107 0.5723569 
-0.003164 1.376658 8.615036 0.7735409 0.272107 0.5723569 
-0.003164 1.021288 8.783984 0.7735409 0.272107 0.5723569 
-0.003164 1.021288 8.272348 -0.82159 -0.173905 -0.542906 
-0.170151 1.307489 8.433377 -0.82159 -0.173905 -0.542906 
-0.003164 1.376658 8.158516 -0.82159 -0.173905 -0.542906 
-0.003164 0.631237 8.243433 -0.8582333 0.03794501 -0.5118552 
-0.190312 0.943769 8.580395 -0.8582333 0.03794501 -0.5118552 
-0.003164 1.021288 8.272348 -0.8582333 0.03794501 -0.5118552 
-0.003164 0.631237 8.93936 -0.758497 0.241161 0.605412 
-0.190312 0.943769 8.580395 -0.758497 0.241161 0.605412 
-0.257722 0.525795 8.662436 -0.758497 0.241161 0.605412 
-0.170151 1.307489 8.433377 -0.7353809 0.4539329 0.5031499 
-0.003164 1.749287 8.278856 -0.7353809 0.4539329 0.5031499 
-0.112227 1.704112 8.160211 -0.7353809 0.4539329 0.5031499 
-0.003164 1.376658 8.158516 0.780112 -0.269455 -0.564641 
0.1059 1.704112 8.152933 0.780112 -0.269455 -0.564641 
0.163824 1.307489 8.422235 0.780112 -0.269455 -0.564641 
-0.003164 1.021288 8.272348 0.8092733 -0.1791991 -0.5594322 
0.163824 1.307489 8.422235 0.8092733 -0.1791991 -0.5594322 
0.183984 0.943769 8.567907 0.8092733 -0.1791991 -0.5594322 
-0.190312 0.943769 8.580395 -0.7575013 0.2803041 0.5895942 
-0.003164 1.376658 8.615036 -0.7575013 0.2803041 0.5895942 
-0.170151 1.307489 8.433377 -0.7575013 0.2803041 0.5895942 
-0.003164 1.749287 7.980692 -0.664799 -0.5212891 -0.5350701 
-0.102895 2.042525 7.818918 -0.664799 -0.5212891 -0.5350701 
-0.003163 2.083835 7.65476 -0.664799 -0.5212891 -0.5350701 
-0.112227 1.704112 8.160211 -0.724161 0.4995029 0.4754869 
-0.003163 2.083835 7.927411 -0.724161 0.4995029 0.4754869 
-0.102895 2.042525 7.818918 -0.724161 0.4995029 0.4754869 
-0.003164 1.376658 8.158516 -0.7942297 -0.2616929 -0.5483758 
-0.112227 1.704112 8.160211 -0.7942297 -0.2616929 -0.5483758 
-0.003164 1.749287 7.980692 -0.7942297 -0.2616929 -0.5483758 
0.163824 1.307489 8.422235 0.750241 0.442887 0.490907 
-0.003164 1.749287 8.278856 0.750241 0.442887 0.490907 
-0.003164 1.376658 8.615036 0.750241 0.442887 0.490907 
0.096568 2.042525 7.812263 0.7180551 0.5520201 0.423876 
-0.003163 2.449938 7.450629 0.7180551 0.5520201 0.423876 
-0.003163 2.083835 7.927411 0.7180551 0.5520201 0.423876 
-0.003163 2.083835 7.65476 -0.6836169 -0.4919529 -0.53912 
-0.050694 2.43025 7.398923 -0.6836169 -0.4919529 -0.53912 
-0.003163 2.449938 7.320687 -0.6836169 -0.4919529 -0.53912 
0.1059 1.704112 8.152933 0.7387438 0.4881718 0.4646998 
-0.003163 2.083835 7.927411 0.7387438 0.4881718 0.4646998 
-0.003164 1.749287 8.278856 0.7387438 0.4881718 0.4646998 
-0.003164 1.749287 7.980692 0.6441494 -0.5337653 -0.5478743 
0.096568 2.042525 7.812263 0.6441494 -0.5337653 -0.5478743 
0.1059 1.704112 8.152933 0.6441494 -0.5337653 -0.5478743 
0.044367 2.43025 7.395751 0.3826891 0.9238772 0 
-0.003163 2.449938 7.320687 0.3826891 0.9238772 0 
-0.003163 2.449938 7.450629 0.3826891 0.9238772 0 
-0.003163 2.449938 7.320687 -0.3826882 0.9238775 0 
-0.050694 2.43025 7.398923 -0.3826882 0.9238775 0 
-0.003163 2.449938 7.450629 -0.3826882 0.9238775 0 
-0.003163 2.083835 7.65476 0.6637302 -0.5041741 -0.5525131 
0.044367 2.43025 7.395751 0.6637302 -0.5041741 -0.5525131 
0.096568 2.042525 7.812263 0.6637302 -0.5041741 -0.5525131 
-0.102895 2.042525 7.818918 -0.7039272 0.5633511 0.4325761 
-0.003163 2.449938 7.450629 -0.7039272 0.5633511 0.4325761 
-0.050694 2.43025 7.398923 -0.7039272 0.5633511 0.4325761 
0.251395 0.159619 4.896317 0.3826829 0.9238797 -0 
0.356836 -0.09494 4.896317 0.9238797 0.3826829 -0 
0.251395 -0.349498 4.896317 0.9238797 -0.3826829 0 
-0.003164 -0.45494 4.896317 0.3826832 -0.9238796 0 
-0.257722 -0.349498 4.896317 -0.3826841 -0.9238793 0 
-0.363164 -0.09494 4.896317 -0.9238797 -0.3826829 0 
-0.257722 0.159619 8.662436 -0.3826829 0.9238797 0 
-0.257722 0.159619 4.896317 -0.9238797 0.3826829 0 
-0.003164 0.26506 4.896317 -0.3826829 0.9238797 0 
-0.003164 0.26506 -0.013683 -0 0 -1 
0.251395 0.159619 -0.013683 -0 0 -1 
0.356836 -0.09494 -0.013683 0 0 -1 
-0.003164 -0.45494 -0.013683 0 0 -1 
-0.257722 -0.349498 -0.013683 0 0 -1 
0.251395 0.159619 9.118516 -0 0 1 
-0.003164 0.26506 9.118516 0 0 1 
-0.257722 0.159619 9.118516 0 0 1 
-0.257722 -0.349498 9.118516 0 0 1 
0.251395 -0.349498 9.118516 0 0 1 
-0.003164 0.26506 4.896317 0.3826829 0.9238797 0 
0.251395 -0.349498 4.896317 0.9238797 -0.3826829 0 
0.356836 -0.09494 4.896317 0.9238797 -0.3826829 0 
-0.363164 -0.09494 9.118516 -0.9238797 -0.3826829 0 
-0.257722 -0.349498 9.118516 -0.9238797 -0.3826829 -0 
0.251395 -0.349498 4.896317 0.3826829 -0.9238797 0 
0.251395 -0.349498 8.601395 0.3826829 -0.9238797 0 
-0.003164 -0.45494 8.231602 0.3826829 -0.9238797 0 
-0.257722 0.159619 4.896317 -0.9238797 0.3826829 0 
-0.363164 -0.09494 4.896317 -0.9238797 0.3826829 0 
0.356836 -0.09494 9.118516 0.9238797 0.3826829 -0 
0.356836 -0.09494 4.896317 0.9238797 0.3826829 -0 
0.251395 0.159619 8.645452 0.9238797 0.3826829 -0 
0.251395 0.159619 9.118516 0.9238797 0.3826829 0 
-0.257722 -0.349498 4.896317 -0.3826832 -0.9238796 -0 
-0.003164 -0.45494 4.896317 -0.3826832 -0.9238796 -0 
-0.003164 -0.45494 8.231602 -0.3826832 -0.9238796 -0 
-0.003164 -1.031322 8.168848 0.7228101 0.2897431 -0.6273711 
0.251395 -0.92588 8.510828 0.7228101 0.2897431 -0.6273711 
0.214953 -1.485968 8.210173 0.7228101 0.2897431 -0.6273711 
-0.003164 -0.45494 8.231602 -0.8080589 0.06376199 -0.585641 
-0.003164 -1.031322 8.168848 -0.8080589 0.06376199 -0.585641 
-0.257722 -0.92588 8.531564 -0.8080589 0.06376199 -0.585641 
0.251395 -0.349498 8.601395 0.3826829 -0.9238797 0 
-0.003164 -0.45494 8.881492 -0.3826841 -0.9238793 -0 
-0.003164 -0.45494 9.118516 -0.3826841 -0.9238793 -0 
-0.257722 -0.349498 9.118516 -0.3826841 -0.9238793 -0 
-0.003164 -0.45494 8.231602 0.8078747 0.09148198 -0.5822109 
0.251395 -0.349498 8.601395 0.8078747 0.09148198 -0.5822109 
0.251395 -0.92588 8.510828 0.8078747 0.09148198 -0.5822109 
-0.257722 -0.92588 8.531564 -0.8466204 -0.3215972 0.4240392 
-0.22128 -1.485968 8.179544 -0.8466204 -0.3215972 0.4240392 
-0.003164 -1.576315 8.546507 -0.8466204 -0.3215972 0.4240392 
-0.003164 -0.45494 8.881492 0.7802122 -0.06770302 0.6218402 
-0.003164 -1.031322 8.818738 0.7802122 -0.06770302 0.6218402 
0.251395 -0.92588 8.510828 0.7802122 -0.06770302 0.6218402 
-0.003164 -0.45494 8.881492 -0.728258 -0.10907 0.6765679 
-0.257722 -0.349498 8.624483 -0.728258 -0.10907 0.6765679 
-0.257722 -0.92588 8.531564 -0.728258 -0.10907 0.6765679 
0.214953 -1.485968 8.210173 0.8204668 -0.3752849 0.4312719 
-0.003164 -1.576315 8.546507 0.8204668 -0.3752849 0.4312719 
-0.003164 -1.979971 8.195252 0.8204668 -0.3752849 0.4312719 
-0.003164 -1.979971 7.76499 -0.488111 0.4244541 -0.7626181 
-0.003164 -1.031322 8.168848 -0.5721688 0.2561679 -0.7791027 
-0.003164 -1.576315 7.989655 -0.5721688 0.2561679 -0.7791027 
-0.22128 -1.485968 8.179544 -0.5721688 0.2561679 -0.7791027 
0.251395 -0.92588 8.510828 0.785008 -0.276826 0.554193 
-0.003164 -1.031322 8.818738 0.785008 -0.276826 0.554193 
-0.003164 -1.576315 8.546507 0.785008 -0.276826 0.554193 
-0.003164 -1.979971 8.195252 0.7913203 -0.4743432 0.3857601 
-0.003164 -1.979971 7.76499 -0.4149799 0.5388949 -0.7330648 
-0.003164 -2.414288 7.445713 -0.4149799 0.5388949 -0.7330648 
-0.08757 -2.379325 7.519196 -0.4149799 0.5388949 -0.7330648 
-0.22128 -1.485968 8.179544 -0.8388671 -0.357327 0.410633 
-0.171695 -1.910163 7.911712 -0.8388671 -0.357327 0.410633 
-0.003164 -1.979971 8.195252 -0.8388671 -0.357327 0.410633 
-0.003164 -1.576315 7.989655 0.5634151 0.4017881 -0.7218932 
0.214953 -1.485968 8.210173 0.5634151 0.4017881 -0.7218932 
0.165368 -1.910163 7.935377 0.5634151 0.4017881 -0.7218932 
-0.003164 -2.414288 7.445713 0.2622299 0.7739128 -0.5764499 
0.081242 -2.379325 7.531048 0.2622299 0.7739128 -0.5764499 
0.01953 -2.707798 7.061984 0.2622299 0.7739128 -0.5764499 
-0.025857 -2.707798 7.058797 -0.757616 -0.575068 0.308731 
-0.171695 -1.910163 7.911712 -0.8103282 -0.4546171 0.3697181 
-0.08757 -2.379325 7.519196 -0.8103282 -0.4546171 0.3697181 
-0.003164 -2.414288 7.661202 -0.8103282 -0.4546171 0.3697181 
-0.003164 -1.979971 7.76499 0.4947082 0.5147462 -0.7002143 
0.165368 -1.910163 7.935377 0.4947082 0.5147462 -0.7002143 
0.081242 -2.379325 7.531048 0.4947082 0.5147462 -0.7002143 
-0.003164 -2.414288 7.445713 -0.184623 0.7881912 -0.5870851 
-0.003164 -2.717197 7.039041 -0.184623 0.7881912 -0.5870851 
-0.025857 -2.707798 7.058797 -0.184623 0.7881912 -0.5870851 
0.081242 -2.379325 7.531048 0.738204 -0.594343 0.319079 
-0.003164 -2.414288 7.661202 0.738204 -0.594343 0.319079 
-0.003164 -2.717197 7.096977 0.738204 -0.594343 0.319079 
-0.003164 0.631237 8.93936 -0.7362111 -0 0.676752 
-0.003164 0.631237 8.93936 0.7748882 0.2339171 0.5872232 
0.251395 0.525795 8.645452 0.7748882 0.2339171 0.5872232 
0.183984 0.943769 8.567907 0.7748882 0.2339171 0.5872232 
-0.003164 0.26506 8.93936 -0.3826829 0.9238797 0 
-0.257722 0.159619 8.662436 -0.3826829 0.9238797 0 
-0.257722 0.159619 9.118516 -0.3826829 0.9238797 0 
-0.003164 0.631237 8.243433 0.8448699 0 -0.534972 
-0.003164 0.26506 9.118516 0.3826829 0.9238797 0 
-0.003164 0.631237 8.243433 0.8488259 0.03908399 -0.5272259 
-0.003164 1.021288 8.272348 0.8488259 0.03908399 -0.5272259 
0.183984 0.943769 8.567907 0.8488259 0.03908399 -0.5272259 
-0.257722 0.159619 8.662436 -0.8546389 -0 -0.5192229 
0.251395 0.159619 8.645452 0.755895 0 0.654693 
0.183984 0.943769 8.567907 0.7735419 0.272108 0.572355 
0.163824 1.307489 8.422235 0.7735419 0.272108 0.572355 
-0.003164 1.376658 8.615036 0.7735419 0.272108 0.572355 
-0.003164 1.021288 8.272348 -0.8215905 -0.1739051 -0.5429053 
-0.190312 0.943769 8.580395 -0.8215905 -0.1739051 -0.5429053 
-0.170151 1.307489 8.433377 -0.8215905 -0.1739051 -0.5429053 
-0.003164 0.631237 8.243433 -0.8582321 0.037947 -0.511857 
-0.257722 0.525795 8.662436 -0.8582321 0.037947 -0.511857 
-0.190312 0.943769 8.580395 -0.8582321 0.037947 -0.511857 
-0.003164 0.631237 8.93936 -0.7584943 0.2411641 0.6054142 
-0.003164 1.021288 8.783984 -0.7584943 0.2411641 0.6054142 
-0.190312 0.943769 8.580395 -0.7584943 0.2411641 0.6054142 
-0.003164 1.376658 8.615036 -0.7353809 0.4539329 0.5031499 
-0.003164 1.376658 8.158516 0.7801111 -0.269455 -0.5646421 
-0.003164 1.749287 7.980692 0.7801111 -0.269455 -0.5646421 
0.1059 1.704112 8.152933 0.7801111 -0.269455 -0.5646421 
-0.003164 1.021288 8.272348 0.809273 -0.179198 -0.559433 
-0.003164 1.376658 8.158516 0.809273 -0.179198 -0.559433 
0.163824 1.307489 8.422235 0.809273 -0.179198 -0.559433 
-0.190312 0.943769 8.580395 -0.7574996 0.2803039 0.5895967 
-0.003164 1.021288 8.783984 -0.7574996 0.2803039 0.5895967 
-0.003164 1.376658 8.615036 -0.7574996 0.2803039 0.5895967 
-0.112227 1.704112 8.160211 -0.664799 -0.5212891 -0.5350701 
-0.112227 1.704112 8.160211 -0.724162 0.4995021 0.4754861 
-0.003164 1.749287 8.278856 -0.724162 0.4995021 0.4754861 
-0.003163 2.083835 7.927411 -0.724162 0.4995021 0.4754861 
-0.170151 1.307489 8.433377 -0.7942297 -0.2616929 -0.5483758 
0.163824 1.307489 8.422235 0.7502418 0.4428869 0.4909059 
0.1059 1.704112 8.152933 0.7502418 0.4428869 0.4909059 
-0.003164 1.749287 8.278856 0.7502418 0.4428869 0.4909059 
0.044367 2.43025 7.395751 0.7180551 0.5520201 0.423876 
-0.102895 2.042525 7.818918 -0.6836169 -0.4919529 -0.53912 
0.1059 1.704112 8.152933 0.7387433 0.4881722 0.4647002 
0.096568 2.042525 7.812263 0.7387433 0.4881722 0.4647002 
-0.003163 2.083835 7.927411 0.7387433 0.4881722 0.4647002 
-0.003164 1.749287 7.980692 0.644149 -0.533765 -0.547875 
-0.003163 2.083835 7.65476 0.644149 -0.533765 -0.547875 
0.096568 2.042525 7.812263 0.644149 -0.533765 -0.547875 
-0.003163 2.083835 7.65476 0.6637295 -0.5041746 -0.5525135 
-0.003163 2.449938 7.320687 0.6637295 -0.5041746 -0.5525135 
0.044367 2.43025 7.395751 0.6637295 -0.5041746 -0.5525135 
-0.003163 2.083835 7.927411 -0.7039272 0.5633511 0.4325761 
3 0 1 2 
3 3 4 5 
3 6 7 8 
3 9 10 11 
3 12 13 14 
3 15 16 17 
3 18 19 20 
3 21 22 23 
3 24 25 26 
3 27 28 29 
3 30 31 32 
3 33 34 35 
3 36 37 38 
3 39 40 41 
3 42 43 44 
3 45 46 47 
3 48 49 50 
3 51 52 53 
3 54 55 56 
3 57 58 59 
3 60 61 62 
3 63 64 65 
3 66 67 68 
3 69 70 71 
3 72 73 74 
3 75 76 77 
3 78 79 80 
3 81 82 83 
3 84 85 86 
3 87 88 89 
3 90 91 92 
3 93 94 95 
3 96 97 98 
3 99 100 101 
3 102 103 104 
3 105 106 107 
3 108 109 110 
3 111 112 113 
3 114 115 116 
3 117 118 119 
3 120 121 122 
3 123 124 125 
3 126 127 128 
3 129 130 131 
3 132 133 134 
3 135 136 137 
3 138 139 140 
3 141 142 143 
3 144 145 146 
3 147 148 149 
3 150 151 152 
3 153 154 155 
3 156 157 158 
3 159 160 161 
3 162 163 164 
3 165 166 167 
3 168 169 170 
3 171 172 173 
3 174 175 176 
3 177 178 179 
3 180 181 182 
3 183 184 185 
3 186 187 188 
3 189 190 191 
3 192 193 194 
3 195 196 197 
3 198 199 200 
3 201 202 203 
3 204 205 206 
3 207 208 209 
3 0 210 1 
3 3 211 4 
3 6 212 7 
3 9 213 10 
3 12 214 13 
3 15 215 16 
3 18 216 19 
3 21 217 22 
3 24 218 25 
3 29 219 220 
3 220 221 27 
3 27 222 223 
3 223 28 27 
3 29 220 27 
3 32 224 30 
3 225 226 30 
3 30 227 31 
3 31 228 32 
3 224 225 30 
3 33 229 34 
3 38 230 231 
3 231 36 38 
3 232 41 40 
3 40 233 232 
3 234 235 236 
3 47 237 238 
3 238 45 47 
3 239 240 241 
3 241 242 239 
3 243 244 245 
3 246 247 248 
3 249 250 251 
3 60 252 61 
3 253 254 255 
3 256 257 258 
3 259 260 261 
3 262 263 264 
3 265 266 267 
3 268 269 270 
3 81 271 82 
3 272 273 274 
3 275 276 277 
3 90 278 91 
3 279 280 281 
3 282 283 284 
3 285 286 287 
3 288 289 290 
3 105 291 106 
3 292 293 294 
3 295 296 297 
3 298 299 300 
3 301 302 303 
3 126 304 127 
3 305 306 307 
3 308 309 310 
3 135 311 136 
3 138 312 139 
3 313 314 315 
3 144 316 145 
3 147 317 148 
3 318 319 320 
3 321 322 323 
3 324 325 326 
3 327 328 329 
3 162 330 163 
3 331 332 333 
3 334 335 336 
3 337 338 339 
3 174 340 175 
3 341 342 343 
3 180 344 181 
3 345 346 347 
3 186 348 187 
3 189 349 190 
3 350 351 352 
3 353 354 355 
3 356 357 358 
3 207 359 208 
