ply
format ascii 1.0
comment VCGLIB generated
element vertex 472
property float x
property float y
property float z
element face 232
property list uchar int vertex_indices
end_header
0.620877 0.024097 0.686693 
-0.620876 0.024098 -0.55506 
0.620877 0.024098 -0.55506 
-0.249074 2.304421 -0.555058 
-0.620877 2.758993 -0.555058 
0.228047 2.305271 -0.555057 
0.620877 1.265852 -0.555059 
0.620877 0.024097 0.686693 
0.620877 0.024098 -0.55506 
0.620876 1.265851 0.686695 
-0.620877 0.024097 0.686693 
0.620877 0.024097 0.686693 
-0.620877 0.024097 0.686693 
-0.620877 1.265852 -0.555059 
-0.620876 0.024098 -0.55506 
0.620877 0.024098 -0.55506 
-0.620877 1.265852 -0.555059 
0.620877 1.265852 -0.555059 
0.620876 2.758991 0.686696 
0.620876 3.051694 0.686697 
-0.620877 2.758991 0.686696 
0.240751 2.287982 0.686696 
0.620876 2.758991 0.686696 
-0.620877 2.758991 0.686696 
0.620877 1.265852 -0.555059 
0.620876 2.758991 0.686696 
0.620876 1.265851 0.686695 
-0.620877 1.265851 0.686694 
-0.620877 2.758993 -0.555058 
-0.620877 1.265852 -0.555059 
0.241868 1.792421 -1.656711 
-0.249072 2.304423 -1.656711 
0.228049 2.305273 -1.65671 
-0.620877 1.265852 -0.555059 
0.241866 1.792419 -0.555058 
0.620877 1.265852 -0.555059 
0.228047 2.305271 -0.555057 
-0.249072 2.304423 -1.656711 
-0.249074 2.304421 -0.555058 
0.228047 2.305271 -0.555057 
0.241868 1.792421 -1.656711 
0.228049 2.305273 -1.65671 
-0.25985 1.788512 -0.555059 
-0.249072 2.304423 -1.656711 
-0.259848 1.788514 -1.656712 
-0.25985 1.788512 -0.555059 
0.241868 1.792421 -1.656711 
0.241866 1.792419 -0.555058 
0.240094 1.757128 1.8034 
-0.289186 2.293224 1.803401 
-0.302621 1.757738 1.8034 
0.240095 1.75713 0.686696 
-0.620877 1.265851 0.686694 
0.620876 1.265851 0.686695 
0.240095 1.75713 0.686696 
-0.302621 1.757738 1.8034 
-0.30262 1.75774 0.686695 
-0.289185 2.293226 0.686696 
0.240751 2.287981 1.345953 
0.240751 2.287982 0.686696 
-0.302621 1.757738 1.8034 
-0.289186 2.293224 1.803401 
-0.289185 2.293225 1.352875 
0.240751 2.287982 0.686696 
0.240751 2.287981 1.345953 
0.240095 1.75713 0.686696 
-0.620877 3.948789 0.686697 
-0.620877 4.713202 -0.555056 
-0.620877 3.94879 -0.555056 
0.620876 3.051694 0.686697 
0.835972 3.073086 -0.555057 
0.620877 3.073086 -0.555057 
-0.620877 3.94879 -0.555056 
-1.23026 3.948791 -1.119835 
-1.23026 3.94879 -0.555056 
-0.620877 3.772194 -0.555056 
0.620877 3.816263 -0.555056 
0.620877 3.815288 -0.555056 
0.835972 2.758993 -0.555057 
0.835971 3.051694 0.686697 
0.835971 2.758991 0.686697 
0.620877 3.815288 -0.555056 
1.346549 3.812026 0.686698 
0.620876 3.812026 0.686697 
0.620877 2.758993 -0.555057 
0.620876 1.116423 0.686695 
0.620876 2.758991 0.686696 
0.620877 3.073086 -0.555057 
0.835972 2.758993 -0.555057 
0.620877 2.758993 -0.555057 
0.620876 2.758991 0.686696 
0.835971 3.051694 0.686697 
0.620876 3.051694 0.686697 
0.620877 1.116425 -0.555059 
0.835971 1.116423 0.686695 
0.620876 1.116423 0.686695 
0.620877 1.116425 -0.555059 
0.835971 2.758991 0.686697 
0.835972 1.116425 -0.555059 
0.835972 2.758993 -0.555057 
0.835971 1.116423 0.686695 
0.835971 2.758991 0.686697 
0.620877 3.073086 -0.555057 
0.620876 3.812026 0.686697 
0.620876 3.051694 0.686697 
-0.620877 2.758991 0.686696 
-0.620877 3.772194 -0.555056 
-0.620877 2.758993 -0.555058 
-1.23026 3.948789 0.686697 
-0.620877 3.948789 0.686697 
0.620877 3.94879 -0.555056 
-0.620877 3.948791 -1.126399 
-0.620877 3.94879 -0.555056 
0.620876 3.812025 1.44544 
-0.620877 3.948788 1.44544 
-0.620877 3.772192 1.44544 
-0.620877 3.948788 1.44544 
-1.23026 3.772192 1.445439 
-0.620877 3.772192 1.44544 
-0.620877 3.948789 0.686697 
0.620876 3.948788 1.271367 
0.620876 3.948789 0.686697 
0.620876 3.812026 0.686697 
-0.620877 3.772192 1.44544 
-0.620877 3.772193 0.686697 
0.620877 3.816263 -1.291033 
-0.620876 3.948791 -1.291033 
0.620877 3.948791 -1.291033 
-0.620877 3.948791 -1.126399 
-1.23026 4.360219 -1.119834 
-1.23026 3.948791 -1.119835 
0.620877 3.816263 -0.555056 
-0.620876 3.772195 -1.291033 
0.620877 3.816263 -1.291033 
-1.23026 3.94879 -0.555056 
-1.23026 3.948791 -1.119835 
-1.23026 3.772194 -0.555057 
-0.620877 3.772193 0.686697 
-1.23026 3.772194 -0.555057 
-0.620877 3.772194 -0.555056 
-0.620876 3.772195 -1.291033 
-1.23026 3.948791 -1.291033 
-0.620876 3.948791 -1.291033 
-0.620877 3.772194 -0.555056 
-1.23026 3.772195 -1.291033 
-0.620876 3.772195 -1.291033 
-0.620877 3.772192 1.44544 
-1.23026 3.772193 0.686697 
-0.620877 3.772193 0.686697 
1.346549 3.948789 0.686698 
1.346549 3.948788 1.268916 
1.346549 3.812026 0.686698 
0.620876 3.812026 0.686697 
1.346548 3.812025 1.445441 
0.620876 3.812025 1.44544 
0.620877 3.816263 -0.555056 
1.34655 3.816263 -1.291032 
1.34655 3.816263 -0.555056 
0.620876 3.812025 1.44544 
1.346548 3.948788 1.445441 
0.620876 3.948788 1.44544 
0.620877 3.94879 -0.555056 
1.346549 3.948789 0.686698 
1.34655 3.94879 -0.555056 
0.620877 3.816263 -0.555056 
1.34655 3.815288 -0.555056 
0.620877 3.815288 -0.555056 
1.34655 3.948791 -1.291032 
1.34655 4.360219 -1.147594 
1.34655 3.948791 -1.147594 
1.34655 3.816263 -1.291032 
0.620876 3.948789 0.686697 
1.346549 3.948788 1.268916 
1.346549 3.948789 0.686698 
-0.620877 4.713202 -0.555056 
0.620876 4.713201 0.686698 
0.620877 4.713202 -0.555055 
-0.620877 3.94879 -0.555056 
0.620877 4.713202 -0.555055 
0.620877 3.94879 -0.555056 
0.620876 3.948789 0.686697 
-0.620877 4.713201 0.686698 
-0.620877 3.948789 0.686697 
0.620877 3.94879 -0.555056 
0.620876 4.713201 0.686698 
0.620876 3.948789 0.686697 
-0.620877 3.948788 1.275559 
-1.23026 3.948789 0.686697 
-1.23026 3.948788 1.277617 
-1.23026 3.948788 1.44544 
-1.23026 4.355173 1.277617 
-1.23026 3.948788 1.277617 
0.620877 3.948791 -1.139777 
-0.620876 4.360219 -1.126399 
-0.620877 3.948791 -1.126399 
0.620877 3.948791 -1.139777 
1.34655 3.94879 -0.555056 
1.34655 3.948791 -1.147594 
0.620877 4.360219 -1.291032 
-0.620876 4.360219 -1.291033 
0.620877 4.360219 -1.139776 
-1.23026 3.948791 -1.291033 
-0.620876 4.360219 -1.291033 
-0.620876 3.948791 -1.291033 
-1.23026 4.360219 -1.291033 
-1.23026 3.948791 -1.291033 
1.34655 4.360219 -1.291032 
1.34655 3.948791 -1.291032 
1.34655 3.948791 -1.147594 
0.620877 4.360219 -1.139776 
-0.620876 4.360219 -1.291033 
0.620877 4.360219 -1.291032 
-0.620877 4.355173 1.27556 
0.620876 4.355173 1.445441 
0.620876 4.355173 1.271367 
-0.620877 4.355173 1.44544 
-0.620877 3.948788 1.44544 
-1.23026 4.355173 1.44544 
-1.23026 3.948788 1.44544 
1.346548 4.355173 1.445441 
0.620876 4.355173 1.445441 
0.620876 3.948788 1.271367 
1.346549 4.355173 1.268917 
1.346549 3.948788 1.268916 
-1.23026 3.948788 1.277617 
-0.620877 4.355173 1.27556 
-0.620877 3.948788 1.275559 
1.346549 3.948788 1.268916 
1.346548 4.355173 1.445441 
1.346548 3.948788 1.445441 
0.620876 4.355173 1.271367 
0.620876 3.948788 1.271367 
-0.283669 2.850757 1.352876 
0.246268 2.845512 1.803402 
0.246268 2.845513 1.345954 
0.240751 2.28798 1.803401 
-0.283669 2.850756 1.803402 
-0.289186 2.293224 1.803401 
-0.289185 2.293225 1.352875 
0.246268 2.845513 1.345954 
0.240751 2.287981 1.345953 
1.96334 2.828522 1.345954 
-1.949783 2.309656 1.8034 
1.957823 2.27099 1.345953 
1.963339 2.828522 1.803402 
1.957823 2.270989 1.803401 
0.240751 2.287981 1.345953 
1.96334 2.828522 1.345954 
1.957823 2.27099 1.345953 
0.240751 2.287981 1.345953 
1.957823 2.270989 1.803401 
0.240751 2.28798 1.803401 
1.963339 2.828522 1.803402 
0.246268 2.845512 1.803402 
-1.944266 2.867188 1.803401 
-2.121529 2.162371 1.923778 
-1.949783 2.309656 1.8034 
-1.944266 2.867188 1.803401 
-0.283669 2.850756 1.803402 
-0.289186 2.293224 1.803401 
-1.949783 2.309657 1.352875 
-0.289185 2.293225 1.352875 
-0.283669 2.850757 1.352876 
-1.949783 2.309657 1.352875 
-1.944266 2.867189 1.352875 
-2.121529 2.162371 1.923778 
-2.113064 3.017844 1.232497 
-2.121529 2.162372 1.232496 
-1.949783 2.309657 1.352875 
-2.121529 2.162371 1.923778 
-2.121529 2.162372 1.232496 
-1.944266 2.867189 1.352875 
-2.121529 2.162372 1.232496 
-2.113064 3.017844 1.232497 
-1.944266 2.867188 1.803401 
-2.113064 3.017844 1.232497 
-2.113064 3.017843 1.92378 
-0.620877 0.024097 0.686693 
0.620877 2.758993 -0.555057 
0.620877 1.265852 -0.555059 
0.241866 1.792419 -0.555058 
0.228047 2.305271 -0.555057 
-0.25985 1.788512 -0.555059 
-0.620877 1.265852 -0.555059 
-0.620877 2.758993 -0.555058 
0.620877 2.758993 -0.555057 
0.228047 2.305271 -0.555057 
-0.620877 2.758993 -0.555058 
-0.249074 2.304421 -0.555058 
-0.25985 1.788512 -0.555059 
-0.620877 2.758993 -0.555058 
0.620877 0.024097 0.686693 
-0.620877 1.265851 0.686694 
-0.620877 1.265851 0.686694 
-0.620876 0.024098 -0.55506 
-0.620877 3.772193 0.686697 
-0.620877 2.758991 0.686696 
0.620876 3.051694 0.686697 
0.620876 3.051694 0.686697 
0.620876 3.812026 0.686697 
-0.620877 3.772193 0.686697 
-0.620877 2.758991 0.686696 
-0.620877 1.265851 0.686694 
-0.30262 1.75774 0.686695 
-0.289185 2.293226 0.686696 
0.240751 2.287982 0.686696 
-0.620877 2.758991 0.686696 
-0.620877 2.758991 0.686696 
-0.30262 1.75774 0.686695 
-0.289185 2.293226 0.686696 
0.620877 2.758993 -0.555057 
-0.620877 2.758991 0.686696 
0.241868 1.792421 -1.656711 
-0.259848 1.788514 -1.656712 
-0.249072 2.304423 -1.656711 
-0.620877 1.265852 -0.555059 
-0.25985 1.788512 -0.555059 
0.241866 1.792419 -0.555058 
0.228049 2.305273 -1.65671 
0.241866 1.792419 -0.555058 
-0.249074 2.304421 -0.555058 
-0.259848 1.788514 -1.656712 
0.240094 1.757128 1.8034 
0.240751 2.28798 1.803401 
-0.289186 2.293224 1.803401 
0.620876 1.265851 0.686695 
0.620876 2.758991 0.686696 
0.240095 1.75713 0.686696 
0.240095 1.75713 0.686696 
-0.30262 1.75774 0.686695 
-0.620877 1.265851 0.686694 
0.240751 2.287982 0.686696 
0.240095 1.75713 0.686696 
0.240094 1.757128 1.8034 
-0.289185 2.293226 0.686696 
-0.289185 2.293225 1.352875 
0.240751 2.287981 1.345953 
-0.289185 2.293225 1.352875 
-0.289185 2.293226 0.686696 
-0.30262 1.75774 0.686695 
-0.30262 1.75774 0.686695 
-0.302621 1.757738 1.8034 
-0.289185 2.293225 1.352875 
0.240094 1.757128 1.8034 
0.240095 1.75713 0.686696 
0.240751 2.287981 1.345953 
0.240751 2.287981 1.345953 
0.240751 2.28798 1.803401 
0.240094 1.757128 1.8034 
-0.620877 4.713201 0.686698 
0.835971 3.051694 0.686697 
-0.620877 3.948791 -1.126399 
0.620877 3.073086 -0.555057 
0.620877 2.758993 -0.555057 
-0.620877 2.758993 -0.555058 
-0.620877 2.758993 -0.555058 
-0.620877 3.772194 -0.555056 
0.620877 3.073086 -0.555057 
0.620877 3.815288 -0.555056 
0.620877 3.073086 -0.555057 
-0.620877 3.772194 -0.555056 
0.835972 3.073086 -0.555057 
1.34655 3.815288 -0.555056 
0.620877 1.116425 -0.555059 
0.835972 3.073086 -0.555057 
0.835972 2.758993 -0.555057 
0.835972 1.116425 -0.555059 
0.835972 1.116425 -0.555059 
0.835971 1.116423 0.686695 
0.620876 1.116423 0.686695 
0.620877 3.815288 -0.555056 
-0.620877 3.772193 0.686697 
0.620877 3.948791 -1.139777 
-0.620877 3.948788 1.275559 
0.620876 3.812025 1.44544 
-0.620876 3.772195 -1.291033 
-0.620876 4.360219 -1.126399 
-0.620877 3.772194 -0.555056 
-1.23026 3.772194 -0.555057 
-1.23026 3.772193 0.686697 
-1.23026 3.948789 0.686697 
-1.23026 3.772192 1.445439 
-1.23026 3.948789 0.686697 
-1.23026 3.94879 -0.555056 
-1.23026 3.772194 -0.555057 
-1.23026 3.772193 0.686697 
-1.23026 3.772195 -1.291033 
-1.23026 3.772193 0.686697 
-1.23026 3.948788 1.277617 
-1.23026 3.948789 0.686697 
-1.23026 3.772193 0.686697 
-1.23026 3.772195 -1.291033 
-1.23026 3.772194 -0.555057 
-1.23026 3.772192 1.445439 
1.34655 3.816263 -0.555056 
1.34655 3.816263 -1.291032 
1.34655 3.948791 -1.147594 
1.34655 3.948791 -1.147594 
1.34655 3.94879 -0.555056 
1.34655 3.816263 -0.555056 
1.34655 3.816263 -1.291032 
1.346549 3.812026 0.686698 
1.34655 3.815288 -0.555056 
1.34655 3.816263 -0.555056 
1.346548 3.812025 1.445441 
1.34655 3.94879 -0.555056 
1.346549 3.948789 0.686698 
1.34655 3.816263 -0.555056 
1.346549 3.948788 1.268916 
1.346548 3.812025 1.445441 
1.346549 3.812026 0.686698 
1.346549 3.948789 0.686698 
1.346549 3.812026 0.686698 
0.620877 3.816263 -1.291033 
1.346548 3.812025 1.445441 
0.620876 3.948789 0.686697 
1.34655 3.816263 -0.555056 
1.34655 4.360219 -1.291032 
0.620876 3.948788 1.271367 
-0.620877 4.713201 0.686698 
-0.620877 4.713202 -0.555056 
0.620876 4.713201 0.686698 
0.620877 4.713202 -0.555055 
-0.620877 3.948789 0.686697 
-1.23026 4.355173 1.44544 
0.620877 3.94879 -0.555056 
-1.23026 4.360219 -1.119834 
-0.620876 4.360219 -1.126399 
-1.23026 4.360219 -1.291033 
1.34655 4.360219 -1.147594 
1.34655 4.360219 -1.291032 
-0.620876 4.360219 -1.291033 
-1.23026 4.360219 -1.291033 
-0.620876 4.360219 -1.126399 
0.620877 4.360219 -1.139776 
-1.23026 4.360219 -1.291033 
-1.23026 3.948791 -1.119835 
-1.23026 4.360219 -1.119834 
-1.23026 4.360219 -1.291033 
1.34655 4.360219 -1.147594 
1.346548 4.355173 1.445441 
1.346549 4.355173 1.268917 
0.620876 4.355173 1.271367 
-1.23026 4.355173 1.277617 
-0.620877 4.355173 1.44544 
0.620876 4.355173 1.445441 
-1.23026 4.355173 1.44544 
-0.620877 4.355173 1.44544 
0.620876 4.355173 1.271367 
-1.23026 4.355173 1.277617 
1.346549 4.355173 1.268917 
-0.289185 2.293225 1.352875 
-0.283669 2.850757 1.352876 
0.246268 2.845513 1.345954 
0.246268 2.845512 1.803402 
1.963339 2.828522 1.803402 
1.96334 2.828522 1.345954 
-1.944266 2.867188 1.803401 
1.96334 2.828522 1.345954 
0.246268 2.845513 1.345954 
1.957823 2.27099 1.345953 
1.957823 2.270989 1.803401 
-2.113064 3.017843 1.92378 
-1.944266 2.867189 1.352875 
-1.949783 2.309656 1.8034 
-0.289185 2.293225 1.352875 
-2.113064 3.017843 1.92378 
-1.949783 2.309657 1.352875 
-1.949783 2.309656 1.8034 
-2.121529 2.162371 1.923778 
-1.949783 2.309657 1.352875 
-1.944266 2.867189 1.352875 
3 0 1 2 
3 3 4 5 
3 6 7 8 
3 9 10 11 
3 12 13 14 
3 15 16 17 
3 18 19 20 
3 21 22 23 
3 24 25 26 
3 27 28 29 
3 30 31 32 
3 33 34 35 
3 36 37 38 
3 39 40 41 
3 42 43 44 
3 45 46 47 
3 48 49 50 
3 51 52 53 
3 54 55 56 
3 57 58 59 
3 60 61 62 
3 63 64 65 
3 66 67 68 
3 69 70 71 
3 72 73 74 
3 75 76 77 
3 78 79 80 
3 81 82 83 
3 84 85 86 
3 87 88 89 
3 90 91 92 
3 93 94 95 
3 88 96 89 
3 97 98 99 
3 90 100 101 
3 102 103 104 
3 105 106 107 
3 72 108 109 
3 110 111 112 
3 113 114 115 
3 116 117 118 
3 119 120 121 
3 122 123 124 
3 125 126 127 
3 128 129 130 
3 131 132 133 
3 134 135 136 
3 137 138 139 
3 140 141 142 
3 143 144 145 
3 146 147 148 
3 149 150 151 
3 152 153 154 
3 155 156 157 
3 158 159 160 
3 161 162 163 
3 164 165 166 
3 167 168 169 
3 127 170 125 
3 171 172 173 
3 174 175 176 
3 177 178 179 
3 180 181 182 
3 183 184 185 
3 186 187 188 
3 189 190 191 
3 192 193 194 
3 195 196 197 
3 198 199 200 
3 201 202 203 
3 135 204 205 
3 127 206 207 
3 208 209 192 
3 127 210 211 
3 212 213 214 
3 160 215 216 
3 116 217 218 
3 160 219 220 
3 221 222 223 
3 224 225 226 
3 227 228 229 
3 226 230 231 
3 232 233 234 
3 235 236 237 
3 238 239 240 
3 233 241 234 
3 236 242 237 
3 243 244 245 
3 246 247 248 
3 249 250 251 
3 235 252 253 
3 254 255 256 
3 232 257 258 
3 259 260 261 
3 262 263 264 
3 265 266 267 
3 268 269 270 
3 271 272 273 
3 274 275 276 
3 0 277 1 
3 278 279 280 
3 278 280 281 
3 282 283 284 
3 285 286 287 
3 288 289 290 
3 24 26 291 
3 9 292 10 
3 12 293 13 
3 15 294 16 
3 295 296 297 
3 298 299 300 
3 301 302 303 
3 304 305 306 
3 307 308 309 
3 24 310 25 
3 27 311 28 
3 312 313 314 
3 315 316 317 
3 36 318 37 
3 39 319 40 
3 42 320 43 
3 45 321 46 
3 322 323 324 
3 325 326 327 
3 328 329 330 
3 18 331 332 
3 54 333 55 
3 334 335 336 
3 337 338 339 
3 340 341 342 
3 343 344 345 
3 346 347 348 
3 66 349 67 
3 69 350 70 
3 72 351 73 
3 352 353 354 
3 355 356 357 
3 358 359 360 
3 78 361 79 
3 81 362 82 
3 84 363 85 
3 352 364 365 
3 90 101 91 
3 93 366 94 
3 88 367 96 
3 97 368 98 
3 90 369 100 
3 102 370 103 
3 105 371 106 
3 72 74 108 
3 110 372 111 
3 158 160 216 
3 116 218 117 
3 119 373 120 
3 122 374 123 
3 125 375 126 
3 128 376 129 
3 131 377 132 
3 378 379 380 
3 381 189 191 
3 382 383 384 
3 381 191 385 
3 205 386 135 
3 387 388 389 
3 135 386 136 
3 137 390 138 
3 140 391 141 
3 143 392 144 
3 146 393 147 
3 394 395 396 
3 397 398 399 
3 400 167 169 
3 401 402 403 
3 229 404 227 
3 405 406 407 
3 408 409 410 
3 401 403 411 
3 152 412 153 
3 155 413 156 
3 158 414 159 
3 161 415 162 
3 164 416 165 
3 167 417 168 
3 127 207 170 
3 171 418 172 
3 174 419 175 
3 177 420 178 
3 180 421 181 
3 183 422 184 
3 186 423 187 
3 189 424 190 
3 192 209 193 
3 195 425 196 
3 426 427 428 
3 200 429 198 
3 430 198 429 
3 431 432 433 
3 433 434 431 
3 201 435 202 
3 436 437 438 
3 127 211 206 
3 208 439 209 
3 127 126 210 
3 440 441 442 
3 212 443 444 
3 440 442 445 
3 444 213 212 
3 443 446 444 
3 160 220 215 
3 116 447 217 
3 160 159 219 
3 221 448 222 
3 224 449 225 
3 227 450 228 
3 226 225 230 
3 232 258 233 
3 235 253 236 
3 451 452 453 
3 454 455 456 
3 236 457 242 
3 243 458 244 
3 246 459 247 
3 249 460 250 
3 235 461 252 
3 254 462 255 
3 232 463 257 
3 259 464 260 
3 262 465 263 
3 265 466 266 
3 467 468 469 
3 271 470 272 
3 274 471 275 
